<svg xmlns="http://www.w3.org/2000/svg" width="22.49" height="18.411" viewBox="0 0 22.49 18.411">
  <path id="Path_2076" data-name="Path 2076" d="M21.655,55.392h-3.07V52.441h3.07a.835.835,0,1,0,0-1.67h-3.07V46.677a1.975,1.975,0,0,0-.351-1.3A1.125,1.125,0,0,0,17.319,45a1.077,1.077,0,0,0-.881.37,2,2,0,0,0-.347,1.306v4.094H10.316L7.86,47.056c-.21-.332-.408-.642-.6-.94a4.182,4.182,0,0,0-.5-.65,1.6,1.6,0,0,0-.489-.342A1.62,1.62,0,0,0,5.6,45a1.69,1.69,0,0,0-.944.284A1.562,1.562,0,0,0,4.04,46a3.661,3.661,0,0,0-.166,1.252v3.518H.835a.835.835,0,0,0,0,1.67h3.04v2.951H.835a.835.835,0,1,0,0,1.67h3.04v4.674a1.932,1.932,0,0,0,.363,1.29,1.129,1.129,0,0,0,.916.385,1.148,1.148,0,0,0,.91-.386,1.889,1.889,0,0,0,.369-1.289V57.062h5.226L14.486,61.4c.2.287.4.576.6.86a4.069,4.069,0,0,0,.592.667,1.844,1.844,0,0,0,.6.37,2.23,2.23,0,0,0,.753.118c.765,0,1.548-.234,1.548-1.97v-4.38h3.07a.835.835,0,0,0,0-1.67Zm-5.564-2.951v2.951H13.37l-1.95-2.951Zm-9.658-3.39,1.122,1.72H6.432Zm0,6.341V52.441H8.644l1.925,2.951Zm9.658,4.118-1.617-2.448h1.617V59.51Z" transform="translate(0 -45.001)" fill="#fff"/>
</svg>
